[gd_scene load_steps=2 format=2]

[ext_resource path="res://src/combat/stats.gd" type="Script" id=1]

[node name="stats" type="Node"]
script = ExtResource( 1 )

[node name="Timer" type="Timer" parent="."]
one_shot = true
