[gd_scene load_steps=7 format=2]

[ext_resource path="res://src/game/battles/battle.tscn" type="PackedScene" id=1]
[ext_resource path="res://src/game/battles/spawner.tscn" type="PackedScene" id=2]
[ext_resource path="res://src/actors/enemies/base/modifiers/med_stats.tres" type="Resource" id=3]
[ext_resource path="res://src/actors/enemies/ragged_soul/ragged_soul.tscn" type="PackedScene" id=5]

[sub_resource type="Animation" id=1]
resource_name = "begin_anim"

[sub_resource type="Animation" id=2]
resource_name = "end_anim"

[node name="MainBattle4" instance=ExtResource( 1 )]

[node name="Spawner" parent="SpawnerContainer" index="0" instance=ExtResource( 2 )]
enemy_to_spawn = ExtResource( 5 )
spawn_burst_amount = 5
spawn_interval_limit = 2
stat_modifier = ExtResource( 3 )

[node name="AnimationPlayer" parent="." index="1"]
anims/begin_anim = SubResource( 1 )
anims/end_anim = SubResource( 2 )
