{
	"asset":{
		"generator":"Khronos glTF Blender I/O v4.0.44",
		"version":"2.0"
	},
	"scene":0,
	"scenes":[
		{
			"name":"Scene",
			"nodes":[
				0,
				1,
				2,
				3,
				4,
				5,
				6,
				7,
				8,
				9,
				10,
				11,
				12,
				13,
				14,
				15,
				16,
				17,
				18,
				19,
				20,
				21,
				22,
				23,
				24,
				25,
				26
			]
		}
	],
	"nodes":[
		{
			"mesh":0,
			"name":"Cube.001",
			"scale":[
				22,
				0.5,
				15.59999942779541
			],
			"translation":[
				0,
				-0.04133131355047226,
				-11
			]
		},
		{
			"mesh":1,
			"name":"Wall Edge 3.008",
			"rotation":[
				0,
				0.06981349736452103,
				0,
				0.9975600838661194
			],
			"scale":[
				1.0719374418258667,
				2.6234636306762695,
				2.9212424755096436
			],
			"translation":[
				-21.039127349853516,
				2.875593423843384,
				1.992455005645752
			]
		},
		{
			"mesh":2,
			"name":"Wall Edge 3.009",
			"rotation":[
				0,
				-0.07555387169122696,
				0,
				0.9971417784690857
			],
			"scale":[
				1.0719374418258667,
				2.6234636306762695,
				2.9212422370910645
			],
			"translation":[
				-20.672393798828125,
				2.366318464279175,
				-3.3418667316436768
			]
		},
		{
			"mesh":3,
			"name":"Wall Edge 3.010",
			"rotation":[
				0,
				0.034772735089063644,
				0,
				0.9993952512741089
			],
			"scale":[
				1.4035087823867798,
				3.3995814323425293,
				5.218478202819824
			],
			"translation":[
				-20.76551628112793,
				2.942328453063965,
				-11.429815292358398
			]
		},
		{
			"mesh":4,
			"name":"Wall Edge 3.011",
			"rotation":[
				0,
				-0.22126135230064392,
				0,
				0.9752145409584045
			],
			"scale":[
				1.4035087823867798,
				3.3995814323425293,
				5.218478202819824
			],
			"translation":[
				-20.69762420654297,
				2.5040721893310547,
				-21.988441467285156
			]
		},
		{
			"mesh":5,
			"name":"Wall Edge 3.012",
			"rotation":[
				0.08433891087770462,
				-0.7562231421470642,
				-0.09947041422128677,
				0.6411858797073364
			],
			"scale":[
				1.0833252668380737,
				2.6234636306762695,
				3.894490957260132
			],
			"translation":[
				-14.00969409942627,
				2.503584861755371,
				-25.718429565429688
			]
		},
		{
			"mesh":6,
			"name":"Wall Edge 3.013",
			"rotation":[
				0,
				-0.7424411177635193,
				0,
				0.6699113845825195
			],
			"scale":[
				1.4035087823867798,
				3.3995814323425293,
				5.218477725982666
			],
			"translation":[
				-5.837027549743652,
				3.180379867553711,
				-25.15043830871582
			]
		},
		{
			"mesh":7,
			"name":"Wall Edge 3.014",
			"rotation":[
				0.044846583157777786,
				-0.4886060357093811,
				-0.12245895713567734,
				0.8627031445503235
			],
			"scale":[
				1.0833252668380737,
				2.6234636306762695,
				3.8944907188415527
			],
			"translation":[
				2.5035314559936523,
				1.8990674018859863,
				-26.683874130249023
			]
		},
		{
			"mesh":8,
			"name":"Wall Edge 3.015",
			"rotation":[
				0.08433890342712402,
				-0.7562230229377747,
				-0.09947039932012558,
				0.6411858797073364
			],
			"scale":[
				0.7984635829925537,
				1.933620572090149,
				2.870429754257202
			],
			"translation":[
				8.43198299407959,
				2.133970260620117,
				-24.443946838378906
			]
		},
		{
			"mesh":9,
			"name":"Wall Edge 3.016",
			"rotation":[
				0,
				-0.7424411177635193,
				0,
				0.6699113845825195
			],
			"scale":[
				1.4035086631774902,
				4.8656158447265625,
				5.218477249145508
			],
			"translation":[
				16.96987533569336,
				2.781026840209961,
				-27.005056381225586
			]
		},
		{
			"mesh":10,
			"name":"Wall Edge 3.017",
			"rotation":[
				0,
				-0.9998282790184021,
				0,
				0.018537012860178947
			],
			"scale":[
				1.0719374418258667,
				2.6234636306762695,
				2.9212424755096436
			],
			"translation":[
				22.406227111816406,
				1.8000863790512085,
				-22.418676376342773
			]
		},
		{
			"mesh":11,
			"name":"Wall Edge 3.018",
			"rotation":[
				0,
				0.9919516444206238,
				0,
				0.12661749124526978
			],
			"scale":[
				1.0719374418258667,
				2.6234636306762695,
				2.9212424755096436
			],
			"translation":[
				21.494739532470703,
				1.2908114194869995,
				-17.150026321411133
			]
		},
		{
			"mesh":12,
			"name":"Wall Edge 3.019",
			"rotation":[
				0,
				0.9998630285263062,
				0,
				0.016551854088902473
			],
			"scale":[
				1.4035087823867798,
				3.3995814323425293,
				5.218477725982666
			],
			"translation":[
				20.75848388671875,
				1.8668214082717896,
				-9.095120429992676
			]
		},
		{
			"mesh":13,
			"name":"Wall Edge 3.020",
			"rotation":[
				0,
				-1,
				0,
				0.000235871528275311
			],
			"scale":[
				1.4035087823867798,
				3.3995814323425293,
				5.218478202819824
			],
			"translation":[
				20.71647834777832,
				1.7296836376190186,
				-0.40287351608276367
			]
		},
		{
			"mesh":14,
			"name":"Cactus.005",
			"rotation":[
				0,
				0,
				-0.7071068286895752,
				0.7071068286895752
			],
			"scale":[
				0.18404506146907806,
				0.328897088766098,
				0.18404506146907806
			],
			"translation":[
				-14.939006805419922,
				1.1101229190826416,
				-0.20105494558811188
			]
		},
		{
			"mesh":15,
			"name":"Cactus.006",
			"rotation":[
				0,
				0,
				-0.7071068286895752,
				0.7071068286895752
			],
			"scale":[
				0.18404506146907806,
				0.328897088766098,
				0.18404506146907806
			],
			"translation":[
				-14.922846794128418,
				0.791313648223877,
				-18.0050048828125
			]
		},
		{
			"mesh":16,
			"name":"Cactus.007",
			"rotation":[
				0.18194611370563507,
				-0.18194612860679626,
				-0.6832975149154663,
				0.6832976341247559
			],
			"scale":[
				0.3299185335636139,
				0.5895797610282898,
				0.3299185335636139
			],
			"translation":[
				3.3657076358795166,
				1.3887443542480469,
				-18.158714294433594
			]
		},
		{
			"mesh":17,
			"name":"Cactus.008",
			"rotation":[
				-0.28974106907844543,
				0.28974106907844543,
				-0.6450194716453552,
				0.6450195908546448
			],
			"scale":[
				0.18404506146907806,
				0.328897088766098,
				0.18404506146907806
			],
			"translation":[
				-6.1786346435546875,
				0.925950288772583,
				-17.88347053527832
			]
		},
		{
			"mesh":18,
			"name":"Cactus.009",
			"rotation":[
				-0.28974106907844543,
				0.28974106907844543,
				-0.6450194716453552,
				0.6450195908546448
			],
			"scale":[
				0.3103107810020447,
				0.328897088766098,
				0.18404506146907806
			],
			"translation":[
				-1.596513271331787,
				1.2207828760147095,
				-12.165733337402344
			]
		},
		{
			"mesh":19,
			"name":"Cactus.010",
			"rotation":[
				0,
				0,
				-0.7071068286895752,
				0.7071068286895752
			],
			"scale":[
				0.18404506146907806,
				0.328897088766098,
				0.18404506146907806
			],
			"translation":[
				18.180274963378906,
				0.8985543251037598,
				-17.449384689331055
			]
		},
		{
			"mesh":20,
			"name":"Cactus.011",
			"rotation":[
				0.16140617430210114,
				-0.16140615940093994,
				-0.6884388327598572,
				0.6884389519691467
			],
			"scale":[
				0.18404506146907806,
				0.328897088766098,
				0.18404506146907806
			],
			"translation":[
				14.165105819702148,
				1.0307164192199707,
				-5.337835311889648
			]
		},
		{
			"mesh":21,
			"name":"Tree.001",
			"rotation":[
				0.03576047345995903,
				0.004781688563525677,
				0.991542398929596,
				0.12466815114021301
			],
			"scale":[
				0.025553056970238686,
				0.15929466485977173,
				0.036424510180950165
			],
			"translation":[
				-20.744722366333008,
				6.03919792175293,
				-3.2413525581359863
			]
		},
		{
			"mesh":22,
			"name":"Tree.002",
			"rotation":[
				0.1629585325717926,
				0.007435556501150131,
				0.9656964540481567,
				0.20203864574432373
			],
			"scale":[
				0.03510453924536705,
				0.21883736550807953,
				0.0500396266579628
			],
			"translation":[
				-21.392948150634766,
				7.812189102172852,
				-13.58448314666748
			]
		},
		{
			"mesh":23,
			"name":"Tree.003",
			"rotation":[
				0.15920288860797882,
				0.0355696827173233,
				0.9860990643501282,
				0.03158894553780556
			],
			"scale":[
				0.035881105810403824,
				0.2840765416622162,
				0.050039634108543396
			],
			"translation":[
				-5.148401260375977,
				8.560769081115723,
				-24.6123046875
			]
		},
		{
			"mesh":24,
			"name":"Tree.004",
			"rotation":[
				0.16181842982769012,
				0.02062884159386158,
				0.9789023399353027,
				0.12304262071847916
			],
			"scale":[
				0.03510453924536705,
				0.21883738040924072,
				0.0500396229326725
			],
			"translation":[
				20.226444244384766,
				6.451605796813965,
				-10.818997383117676
			]
		},
		{
			"mesh":25,
			"name":"Tree.005",
			"rotation":[
				0.17805860936641693,
				0.02746906876564026,
				0.980256199836731,
				0.0814775601029396
			],
			"scale":[
				0.026382382959127426,
				0.16446453332901,
				0.03760666027665138
			],
			"translation":[
				11.69887638092041,
				1.458307147026062,
				-16.212932586669922
			]
		},
		{
			"mesh":26,
			"name":"Tree.006",
			"rotation":[
				-0.8268903493881226,
				-0.01313726231455803,
				0.5546349287033081,
				0.09197733551263809
			],
			"scale":[
				0.026382381096482277,
				0.16446451842784882,
				0.03760666400194168
			],
			"translation":[
				-12.680314064025879,
				1.0562758445739746,
				-16.564743041992188
			]
		}
	],
	"materials":[
		{
			"doubleSided":true,
			"name":"texture atlas.001",
			"pbrMetallicRoughness":{
				"baseColorTexture":{
					"index":0
				},
				"metallicFactor":0
			}
		},
		{
			"doubleSided":true,
			"name":"texture atlas",
			"pbrMetallicRoughness":{
				"baseColorTexture":{
					"index":1
				},
				"metallicFactor":0
			}
		}
	],
	"meshes":[
		{
			"name":"Cube.002",
			"primitives":[
				{
					"attributes":{
						"POSITION":0,
						"NORMAL":1,
						"TEXCOORD_0":2
					},
					"indices":3,
					"material":0
				}
			]
		},
		{
			"name":"Cube.006",
			"primitives":[
				{
					"attributes":{
						"POSITION":4,
						"NORMAL":5,
						"TEXCOORD_0":6
					},
					"indices":7,
					"material":1
				}
			]
		},
		{
			"name":"Cube.007",
			"primitives":[
				{
					"attributes":{
						"POSITION":8,
						"NORMAL":9,
						"TEXCOORD_0":10
					},
					"indices":11,
					"material":1
				}
			]
		},
		{
			"name":"Cube.008",
			"primitives":[
				{
					"attributes":{
						"POSITION":12,
						"NORMAL":13,
						"TEXCOORD_0":14
					},
					"indices":11,
					"material":1
				}
			]
		},
		{
			"name":"Cube.009",
			"primitives":[
				{
					"attributes":{
						"POSITION":15,
						"NORMAL":16,
						"TEXCOORD_0":17
					},
					"indices":11,
					"material":1
				}
			]
		},
		{
			"name":"Cube.010",
			"primitives":[
				{
					"attributes":{
						"POSITION":18,
						"NORMAL":19,
						"TEXCOORD_0":20
					},
					"indices":11,
					"material":1
				}
			]
		},
		{
			"name":"Cube.011",
			"primitives":[
				{
					"attributes":{
						"POSITION":21,
						"NORMAL":22,
						"TEXCOORD_0":23
					},
					"indices":11,
					"material":1
				}
			]
		},
		{
			"name":"Cube.012",
			"primitives":[
				{
					"attributes":{
						"POSITION":24,
						"NORMAL":25,
						"TEXCOORD_0":26
					},
					"indices":11,
					"material":1
				}
			]
		},
		{
			"name":"Cube.013",
			"primitives":[
				{
					"attributes":{
						"POSITION":27,
						"NORMAL":28,
						"TEXCOORD_0":29
					},
					"indices":11,
					"material":1
				}
			]
		},
		{
			"name":"Cube.014",
			"primitives":[
				{
					"attributes":{
						"POSITION":30,
						"NORMAL":31,
						"TEXCOORD_0":32
					},
					"indices":11,
					"material":1
				}
			]
		},
		{
			"name":"Cube.015",
			"primitives":[
				{
					"attributes":{
						"POSITION":33,
						"NORMAL":34,
						"TEXCOORD_0":35
					},
					"indices":7,
					"material":1
				}
			]
		},
		{
			"name":"Cube.016",
			"primitives":[
				{
					"attributes":{
						"POSITION":36,
						"NORMAL":37,
						"TEXCOORD_0":38
					},
					"indices":11,
					"material":1
				}
			]
		},
		{
			"name":"Cube.017",
			"primitives":[
				{
					"attributes":{
						"POSITION":39,
						"NORMAL":40,
						"TEXCOORD_0":41
					},
					"indices":11,
					"material":1
				}
			]
		},
		{
			"name":"Cube.018",
			"primitives":[
				{
					"attributes":{
						"POSITION":42,
						"NORMAL":43,
						"TEXCOORD_0":44
					},
					"indices":11,
					"material":1
				}
			]
		},
		{
			"name":"Cylinder.008",
			"primitives":[
				{
					"attributes":{
						"POSITION":45,
						"NORMAL":46,
						"TEXCOORD_0":47
					},
					"indices":48,
					"material":1
				}
			]
		},
		{
			"name":"Cylinder.009",
			"primitives":[
				{
					"attributes":{
						"POSITION":49,
						"NORMAL":50,
						"TEXCOORD_0":51
					},
					"indices":48,
					"material":1
				}
			]
		},
		{
			"name":"Cylinder.010",
			"primitives":[
				{
					"attributes":{
						"POSITION":52,
						"NORMAL":53,
						"TEXCOORD_0":54
					},
					"indices":48,
					"material":1
				}
			]
		},
		{
			"name":"Cylinder.011",
			"primitives":[
				{
					"attributes":{
						"POSITION":55,
						"NORMAL":56,
						"TEXCOORD_0":57
					},
					"indices":48,
					"material":1
				}
			]
		},
		{
			"name":"Cylinder.012",
			"primitives":[
				{
					"attributes":{
						"POSITION":58,
						"NORMAL":59,
						"TEXCOORD_0":60
					},
					"indices":48,
					"material":1
				}
			]
		},
		{
			"name":"Cylinder.013",
			"primitives":[
				{
					"attributes":{
						"POSITION":61,
						"NORMAL":62,
						"TEXCOORD_0":63
					},
					"indices":48,
					"material":1
				}
			]
		},
		{
			"name":"Cylinder.014",
			"primitives":[
				{
					"attributes":{
						"POSITION":64,
						"NORMAL":65,
						"TEXCOORD_0":66
					},
					"indices":48,
					"material":1
				}
			]
		},
		{
			"name":"Cylinder.033",
			"primitives":[
				{
					"attributes":{
						"POSITION":67,
						"NORMAL":68,
						"TEXCOORD_0":69
					},
					"indices":70,
					"material":0
				}
			]
		},
		{
			"name":"Cylinder.034",
			"primitives":[
				{
					"attributes":{
						"POSITION":71,
						"NORMAL":72,
						"TEXCOORD_0":73
					},
					"indices":70,
					"material":0
				}
			]
		},
		{
			"name":"Cylinder.035",
			"primitives":[
				{
					"attributes":{
						"POSITION":74,
						"NORMAL":75,
						"TEXCOORD_0":76
					},
					"indices":70,
					"material":0
				}
			]
		},
		{
			"name":"Cylinder.036",
			"primitives":[
				{
					"attributes":{
						"POSITION":77,
						"NORMAL":78,
						"TEXCOORD_0":79
					},
					"indices":70,
					"material":0
				}
			]
		},
		{
			"name":"Cylinder.037",
			"primitives":[
				{
					"attributes":{
						"POSITION":80,
						"NORMAL":81,
						"TEXCOORD_0":82
					},
					"indices":70,
					"material":0
				}
			]
		},
		{
			"name":"Cylinder.038",
			"primitives":[
				{
					"attributes":{
						"POSITION":83,
						"NORMAL":84,
						"TEXCOORD_0":85
					},
					"indices":70,
					"material":0
				}
			]
		}
	],
	"textures":[
		{
			"sampler":0,
			"source":0
		},
		{
			"sampler":0,
			"source":0
		}
	],
	"images":[
		{
			"mimeType":"image/png",
			"name":"texture_atlas",
			"uri":"texture_atlas.png"
		}
	],
	"accessors":[
		{
			"bufferView":0,
			"componentType":5126,
			"count":24,
			"max":[
				1,
				1,
				1
			],
			"min":[
				-1,
				-1,
				-1
			],
			"type":"VEC3"
		},
		{
			"bufferView":1,
			"componentType":5126,
			"count":24,
			"type":"VEC3"
		},
		{
			"bufferView":2,
			"componentType":5126,
			"count":24,
			"type":"VEC2"
		},
		{
			"bufferView":3,
			"componentType":5123,
			"count":36,
			"type":"SCALAR"
		},
		{
			"bufferView":4,
			"componentType":5126,
			"count":104,
			"max":[
				1.7556991577148438,
				1,
				1.3162975311279297
			],
			"min":[
				-1.8821409940719604,
				-1,
				-1.1663832664489746
			],
			"type":"VEC3"
		},
		{
			"bufferView":5,
			"componentType":5126,
			"count":104,
			"type":"VEC3"
		},
		{
			"bufferView":6,
			"componentType":5126,
			"count":104,
			"type":"VEC2"
		},
		{
			"bufferView":7,
			"componentType":5123,
			"count":156,
			"type":"SCALAR"
		},
		{
			"bufferView":8,
			"componentType":5126,
			"count":104,
			"max":[
				1.8050425052642822,
				1,
				1.3162975311279297
			],
			"min":[
				-1.8821409940719604,
				-1,
				-1.233527660369873
			],
			"type":"VEC3"
		},
		{
			"bufferView":9,
			"componentType":5126,
			"count":104,
			"type":"VEC3"
		},
		{
			"bufferView":10,
			"componentType":5126,
			"count":104,
			"type":"VEC2"
		},
		{
			"bufferView":11,
			"componentType":5123,
			"count":156,
			"type":"SCALAR"
		},
		{
			"bufferView":12,
			"componentType":5126,
			"count":104,
			"max":[
				1.8050425052642822,
				1,
				1.3162975311279297
			],
			"min":[
				-1.8821409940719604,
				-1,
				-1.233527660369873
			],
			"type":"VEC3"
		},
		{
			"bufferView":13,
			"componentType":5126,
			"count":104,
			"type":"VEC3"
		},
		{
			"bufferView":14,
			"componentType":5126,
			"count":104,
			"type":"VEC2"
		},
		{
			"bufferView":15,
			"componentType":5126,
			"count":104,
			"max":[
				1.8050425052642822,
				1,
				1.3162975311279297
			],
			"min":[
				-1.8821409940719604,
				-1,
				-1.233527660369873
			],
			"type":"VEC3"
		},
		{
			"bufferView":16,
			"componentType":5126,
			"count":104,
			"type":"VEC3"
		},
		{
			"bufferView":17,
			"componentType":5126,
			"count":104,
			"type":"VEC2"
		},
		{
			"bufferView":18,
			"componentType":5126,
			"count":104,
			"max":[
				1.8050425052642822,
				1,
				1.3162975311279297
			],
			"min":[
				-1.8821409940719604,
				-1,
				-1.233527660369873
			],
			"type":"VEC3"
		},
		{
			"bufferView":19,
			"componentType":5126,
			"count":104,
			"type":"VEC3"
		},
		{
			"bufferView":20,
			"componentType":5126,
			"count":104,
			"type":"VEC2"
		},
		{
			"bufferView":21,
			"componentType":5126,
			"count":104,
			"max":[
				1.8050425052642822,
				1,
				1.3162975311279297
			],
			"min":[
				-1.8821409940719604,
				-1,
				-1.233527660369873
			],
			"type":"VEC3"
		},
		{
			"bufferView":22,
			"componentType":5126,
			"count":104,
			"type":"VEC3"
		},
		{
			"bufferView":23,
			"componentType":5126,
			"count":104,
			"type":"VEC2"
		},
		{
			"bufferView":24,
			"componentType":5126,
			"count":104,
			"max":[
				1.8050425052642822,
				1,
				1.3162975311279297
			],
			"min":[
				-1.8821409940719604,
				-1,
				-1.233527660369873
			],
			"type":"VEC3"
		},
		{
			"bufferView":25,
			"componentType":5126,
			"count":104,
			"type":"VEC3"
		},
		{
			"bufferView":26,
			"componentType":5126,
			"count":104,
			"type":"VEC2"
		},
		{
			"bufferView":27,
			"componentType":5126,
			"count":104,
			"max":[
				1.8050425052642822,
				1,
				1.3162975311279297
			],
			"min":[
				-1.8821409940719604,
				-1,
				-1.233527660369873
			],
			"type":"VEC3"
		},
		{
			"bufferView":28,
			"componentType":5126,
			"count":104,
			"type":"VEC3"
		},
		{
			"bufferView":29,
			"componentType":5126,
			"count":104,
			"type":"VEC2"
		},
		{
			"bufferView":30,
			"componentType":5126,
			"count":104,
			"max":[
				1.8050425052642822,
				1,
				1.3162975311279297
			],
			"min":[
				-1.8821409940719604,
				-1,
				-1.233527660369873
			],
			"type":"VEC3"
		},
		{
			"bufferView":31,
			"componentType":5126,
			"count":104,
			"type":"VEC3"
		},
		{
			"bufferView":32,
			"componentType":5126,
			"count":104,
			"type":"VEC2"
		},
		{
			"bufferView":33,
			"componentType":5126,
			"count":104,
			"max":[
				1.7556991577148438,
				1,
				1.3162975311279297
			],
			"min":[
				-1.8821409940719604,
				-1,
				-1.1663832664489746
			],
			"type":"VEC3"
		},
		{
			"bufferView":34,
			"componentType":5126,
			"count":104,
			"type":"VEC3"
		},
		{
			"bufferView":35,
			"componentType":5126,
			"count":104,
			"type":"VEC2"
		},
		{
			"bufferView":36,
			"componentType":5126,
			"count":104,
			"max":[
				1.8050425052642822,
				1,
				1.3162975311279297
			],
			"min":[
				-1.8821409940719604,
				-1,
				-1.233527660369873
			],
			"type":"VEC3"
		},
		{
			"bufferView":37,
			"componentType":5126,
			"count":104,
			"type":"VEC3"
		},
		{
			"bufferView":38,
			"componentType":5126,
			"count":104,
			"type":"VEC2"
		},
		{
			"bufferView":39,
			"componentType":5126,
			"count":104,
			"max":[
				1.8050425052642822,
				1,
				1.3162975311279297
			],
			"min":[
				-1.8821409940719604,
				-1,
				-1.233527660369873
			],
			"type":"VEC3"
		},
		{
			"bufferView":40,
			"componentType":5126,
			"count":104,
			"type":"VEC3"
		},
		{
			"bufferView":41,
			"componentType":5126,
			"count":104,
			"type":"VEC2"
		},
		{
			"bufferView":42,
			"componentType":5126,
			"count":104,
			"max":[
				1.8050425052642822,
				1,
				1.3162975311279297
			],
			"min":[
				-1.8821409940719604,
				-1,
				-1.233527660369873
			],
			"type":"VEC3"
		},
		{
			"bufferView":43,
			"componentType":5126,
			"count":104,
			"type":"VEC3"
		},
		{
			"bufferView":44,
			"componentType":5126,
			"count":104,
			"type":"VEC2"
		},
		{
			"bufferView":45,
			"componentType":5126,
			"count":3520,
			"max":[
				3.097867012023926,
				1,
				1.28542959690094
			],
			"min":[
				-4.456270694732666,
				-3.2646355628967285,
				-1.28542959690094
			],
			"type":"VEC3"
		},
		{
			"bufferView":46,
			"componentType":5126,
			"count":3520,
			"type":"VEC3"
		},
		{
			"bufferView":47,
			"componentType":5126,
			"count":3520,
			"type":"VEC2"
		},
		{
			"bufferView":48,
			"componentType":5123,
			"count":5532,
			"type":"SCALAR"
		},
		{
			"bufferView":49,
			"componentType":5126,
			"count":3520,
			"max":[
				3.097867012023926,
				1,
				1.28542959690094
			],
			"min":[
				-4.456270694732666,
				-3.2646355628967285,
				-1.28542959690094
			],
			"type":"VEC3"
		},
		{
			"bufferView":50,
			"componentType":5126,
			"count":3520,
			"type":"VEC3"
		},
		{
			"bufferView":51,
			"componentType":5126,
			"count":3520,
			"type":"VEC2"
		},
		{
			"bufferView":52,
			"componentType":5126,
			"count":3520,
			"max":[
				3.097867012023926,
				1,
				1.28542959690094
			],
			"min":[
				-4.456270694732666,
				-3.2646355628967285,
				-1.28542959690094
			],
			"type":"VEC3"
		},
		{
			"bufferView":53,
			"componentType":5126,
			"count":3520,
			"type":"VEC3"
		},
		{
			"bufferView":54,
			"componentType":5126,
			"count":3520,
			"type":"VEC2"
		},
		{
			"bufferView":55,
			"componentType":5126,
			"count":3520,
			"max":[
				3.097867012023926,
				1,
				1.28542959690094
			],
			"min":[
				-4.456270694732666,
				-3.2646355628967285,
				-1.28542959690094
			],
			"type":"VEC3"
		},
		{
			"bufferView":56,
			"componentType":5126,
			"count":3520,
			"type":"VEC3"
		},
		{
			"bufferView":57,
			"componentType":5126,
			"count":3520,
			"type":"VEC2"
		},
		{
			"bufferView":58,
			"componentType":5126,
			"count":3520,
			"max":[
				3.097867012023926,
				1,
				1.28542959690094
			],
			"min":[
				-4.456270694732666,
				-3.2646355628967285,
				-1.28542959690094
			],
			"type":"VEC3"
		},
		{
			"bufferView":59,
			"componentType":5126,
			"count":3520,
			"type":"VEC3"
		},
		{
			"bufferView":60,
			"componentType":5126,
			"count":3520,
			"type":"VEC2"
		},
		{
			"bufferView":61,
			"componentType":5126,
			"count":3520,
			"max":[
				3.097867012023926,
				1,
				1.28542959690094
			],
			"min":[
				-4.456270694732666,
				-3.2646355628967285,
				-1.28542959690094
			],
			"type":"VEC3"
		},
		{
			"bufferView":62,
			"componentType":5126,
			"count":3520,
			"type":"VEC3"
		},
		{
			"bufferView":63,
			"componentType":5126,
			"count":3520,
			"type":"VEC2"
		},
		{
			"bufferView":64,
			"componentType":5126,
			"count":3520,
			"max":[
				3.097867012023926,
				1,
				1.28542959690094
			],
			"min":[
				-4.456270694732666,
				-3.2646355628967285,
				-1.28542959690094
			],
			"type":"VEC3"
		},
		{
			"bufferView":65,
			"componentType":5126,
			"count":3520,
			"type":"VEC3"
		},
		{
			"bufferView":66,
			"componentType":5126,
			"count":3520,
			"type":"VEC2"
		},
		{
			"bufferView":67,
			"componentType":5126,
			"count":3456,
			"max":[
				26.360637664794922,
				7.107591152191162,
				3.7506818771362305
			],
			"min":[
				-46.36988830566406,
				-7.525650978088379,
				-2.7603907585144043
			],
			"type":"VEC3"
		},
		{
			"bufferView":68,
			"componentType":5126,
			"count":3456,
			"type":"VEC3"
		},
		{
			"bufferView":69,
			"componentType":5126,
			"count":3456,
			"type":"VEC2"
		},
		{
			"bufferView":70,
			"componentType":5123,
			"count":6696,
			"type":"SCALAR"
		},
		{
			"bufferView":71,
			"componentType":5126,
			"count":3456,
			"max":[
				26.360637664794922,
				7.107591152191162,
				3.7506818771362305
			],
			"min":[
				-46.36988830566406,
				-7.525650978088379,
				-2.7603907585144043
			],
			"type":"VEC3"
		},
		{
			"bufferView":72,
			"componentType":5126,
			"count":3456,
			"type":"VEC3"
		},
		{
			"bufferView":73,
			"componentType":5126,
			"count":3456,
			"type":"VEC2"
		},
		{
			"bufferView":74,
			"componentType":5126,
			"count":3456,
			"max":[
				26.360637664794922,
				7.107591152191162,
				3.7506818771362305
			],
			"min":[
				-46.36988830566406,
				-7.525650978088379,
				-2.7603907585144043
			],
			"type":"VEC3"
		},
		{
			"bufferView":75,
			"componentType":5126,
			"count":3456,
			"type":"VEC3"
		},
		{
			"bufferView":76,
			"componentType":5126,
			"count":3456,
			"type":"VEC2"
		},
		{
			"bufferView":77,
			"componentType":5126,
			"count":3456,
			"max":[
				26.360637664794922,
				7.107591152191162,
				3.7506818771362305
			],
			"min":[
				-46.36988830566406,
				-7.525650978088379,
				-2.7603907585144043
			],
			"type":"VEC3"
		},
		{
			"bufferView":78,
			"componentType":5126,
			"count":3456,
			"type":"VEC3"
		},
		{
			"bufferView":79,
			"componentType":5126,
			"count":3456,
			"type":"VEC2"
		},
		{
			"bufferView":80,
			"componentType":5126,
			"count":3456,
			"max":[
				26.360637664794922,
				7.107591152191162,
				3.7506818771362305
			],
			"min":[
				-46.36988830566406,
				-7.525650978088379,
				-2.7603907585144043
			],
			"type":"VEC3"
		},
		{
			"bufferView":81,
			"componentType":5126,
			"count":3456,
			"type":"VEC3"
		},
		{
			"bufferView":82,
			"componentType":5126,
			"count":3456,
			"type":"VEC2"
		},
		{
			"bufferView":83,
			"componentType":5126,
			"count":3456,
			"max":[
				26.360637664794922,
				7.107591152191162,
				3.7506818771362305
			],
			"min":[
				-46.36988830566406,
				-7.525650978088379,
				-2.7603907585144043
			],
			"type":"VEC3"
		},
		{
			"bufferView":84,
			"componentType":5126,
			"count":3456,
			"type":"VEC3"
		},
		{
			"bufferView":85,
			"componentType":5126,
			"count":3456,
			"type":"VEC2"
		}
	],
	"bufferViews":[
		{
			"buffer":0,
			"byteLength":288,
			"byteOffset":0,
			"target":34962
		},
		{
			"buffer":0,
			"byteLength":288,
			"byteOffset":288,
			"target":34962
		},
		{
			"buffer":0,
			"byteLength":192,
			"byteOffset":576,
			"target":34962
		},
		{
			"buffer":0,
			"byteLength":72,
			"byteOffset":768,
			"target":34963
		},
		{
			"buffer":0,
			"byteLength":1248,
			"byteOffset":840,
			"target":34962
		},
		{
			"buffer":0,
			"byteLength":1248,
			"byteOffset":2088,
			"target":34962
		},
		{
			"buffer":0,
			"byteLength":832,
			"byteOffset":3336,
			"target":34962
		},
		{
			"buffer":0,
			"byteLength":312,
			"byteOffset":4168,
			"target":34963
		},
		{
			"buffer":0,
			"byteLength":1248,
			"byteOffset":4480,
			"target":34962
		},
		{
			"buffer":0,
			"byteLength":1248,
			"byteOffset":5728,
			"target":34962
		},
		{
			"buffer":0,
			"byteLength":832,
			"byteOffset":6976,
			"target":34962
		},
		{
			"buffer":0,
			"byteLength":312,
			"byteOffset":7808,
			"target":34963
		},
		{
			"buffer":0,
			"byteLength":1248,
			"byteOffset":8120,
			"target":34962
		},
		{
			"buffer":0,
			"byteLength":1248,
			"byteOffset":9368,
			"target":34962
		},
		{
			"buffer":0,
			"byteLength":832,
			"byteOffset":10616,
			"target":34962
		},
		{
			"buffer":0,
			"byteLength":1248,
			"byteOffset":11448,
			"target":34962
		},
		{
			"buffer":0,
			"byteLength":1248,
			"byteOffset":12696,
			"target":34962
		},
		{
			"buffer":0,
			"byteLength":832,
			"byteOffset":13944,
			"target":34962
		},
		{
			"buffer":0,
			"byteLength":1248,
			"byteOffset":14776,
			"target":34962
		},
		{
			"buffer":0,
			"byteLength":1248,
			"byteOffset":16024,
			"target":34962
		},
		{
			"buffer":0,
			"byteLength":832,
			"byteOffset":17272,
			"target":34962
		},
		{
			"buffer":0,
			"byteLength":1248,
			"byteOffset":18104,
			"target":34962
		},
		{
			"buffer":0,
			"byteLength":1248,
			"byteOffset":19352,
			"target":34962
		},
		{
			"buffer":0,
			"byteLength":832,
			"byteOffset":20600,
			"target":34962
		},
		{
			"buffer":0,
			"byteLength":1248,
			"byteOffset":21432,
			"target":34962
		},
		{
			"buffer":0,
			"byteLength":1248,
			"byteOffset":22680,
			"target":34962
		},
		{
			"buffer":0,
			"byteLength":832,
			"byteOffset":23928,
			"target":34962
		},
		{
			"buffer":0,
			"byteLength":1248,
			"byteOffset":24760,
			"target":34962
		},
		{
			"buffer":0,
			"byteLength":1248,
			"byteOffset":26008,
			"target":34962
		},
		{
			"buffer":0,
			"byteLength":832,
			"byteOffset":27256,
			"target":34962
		},
		{
			"buffer":0,
			"byteLength":1248,
			"byteOffset":28088,
			"target":34962
		},
		{
			"buffer":0,
			"byteLength":1248,
			"byteOffset":29336,
			"target":34962
		},
		{
			"buffer":0,
			"byteLength":832,
			"byteOffset":30584,
			"target":34962
		},
		{
			"buffer":0,
			"byteLength":1248,
			"byteOffset":31416,
			"target":34962
		},
		{
			"buffer":0,
			"byteLength":1248,
			"byteOffset":32664,
			"target":34962
		},
		{
			"buffer":0,
			"byteLength":832,
			"byteOffset":33912,
			"target":34962
		},
		{
			"buffer":0,
			"byteLength":1248,
			"byteOffset":34744,
			"target":34962
		},
		{
			"buffer":0,
			"byteLength":1248,
			"byteOffset":35992,
			"target":34962
		},
		{
			"buffer":0,
			"byteLength":832,
			"byteOffset":37240,
			"target":34962
		},
		{
			"buffer":0,
			"byteLength":1248,
			"byteOffset":38072,
			"target":34962
		},
		{
			"buffer":0,
			"byteLength":1248,
			"byteOffset":39320,
			"target":34962
		},
		{
			"buffer":0,
			"byteLength":832,
			"byteOffset":40568,
			"target":34962
		},
		{
			"buffer":0,
			"byteLength":1248,
			"byteOffset":41400,
			"target":34962
		},
		{
			"buffer":0,
			"byteLength":1248,
			"byteOffset":42648,
			"target":34962
		},
		{
			"buffer":0,
			"byteLength":832,
			"byteOffset":43896,
			"target":34962
		},
		{
			"buffer":0,
			"byteLength":42240,
			"byteOffset":44728,
			"target":34962
		},
		{
			"buffer":0,
			"byteLength":42240,
			"byteOffset":86968,
			"target":34962
		},
		{
			"buffer":0,
			"byteLength":28160,
			"byteOffset":129208,
			"target":34962
		},
		{
			"buffer":0,
			"byteLength":11064,
			"byteOffset":157368,
			"target":34963
		},
		{
			"buffer":0,
			"byteLength":42240,
			"byteOffset":168432,
			"target":34962
		},
		{
			"buffer":0,
			"byteLength":42240,
			"byteOffset":210672,
			"target":34962
		},
		{
			"buffer":0,
			"byteLength":28160,
			"byteOffset":252912,
			"target":34962
		},
		{
			"buffer":0,
			"byteLength":42240,
			"byteOffset":281072,
			"target":34962
		},
		{
			"buffer":0,
			"byteLength":42240,
			"byteOffset":323312,
			"target":34962
		},
		{
			"buffer":0,
			"byteLength":28160,
			"byteOffset":365552,
			"target":34962
		},
		{
			"buffer":0,
			"byteLength":42240,
			"byteOffset":393712,
			"target":34962
		},
		{
			"buffer":0,
			"byteLength":42240,
			"byteOffset":435952,
			"target":34962
		},
		{
			"buffer":0,
			"byteLength":28160,
			"byteOffset":478192,
			"target":34962
		},
		{
			"buffer":0,
			"byteLength":42240,
			"byteOffset":506352,
			"target":34962
		},
		{
			"buffer":0,
			"byteLength":42240,
			"byteOffset":548592,
			"target":34962
		},
		{
			"buffer":0,
			"byteLength":28160,
			"byteOffset":590832,
			"target":34962
		},
		{
			"buffer":0,
			"byteLength":42240,
			"byteOffset":618992,
			"target":34962
		},
		{
			"buffer":0,
			"byteLength":42240,
			"byteOffset":661232,
			"target":34962
		},
		{
			"buffer":0,
			"byteLength":28160,
			"byteOffset":703472,
			"target":34962
		},
		{
			"buffer":0,
			"byteLength":42240,
			"byteOffset":731632,
			"target":34962
		},
		{
			"buffer":0,
			"byteLength":42240,
			"byteOffset":773872,
			"target":34962
		},
		{
			"buffer":0,
			"byteLength":28160,
			"byteOffset":816112,
			"target":34962
		},
		{
			"buffer":0,
			"byteLength":41472,
			"byteOffset":844272,
			"target":34962
		},
		{
			"buffer":0,
			"byteLength":41472,
			"byteOffset":885744,
			"target":34962
		},
		{
			"buffer":0,
			"byteLength":27648,
			"byteOffset":927216,
			"target":34962
		},
		{
			"buffer":0,
			"byteLength":13392,
			"byteOffset":954864,
			"target":34963
		},
		{
			"buffer":0,
			"byteLength":41472,
			"byteOffset":968256,
			"target":34962
		},
		{
			"buffer":0,
			"byteLength":41472,
			"byteOffset":1009728,
			"target":34962
		},
		{
			"buffer":0,
			"byteLength":27648,
			"byteOffset":1051200,
			"target":34962
		},
		{
			"buffer":0,
			"byteLength":41472,
			"byteOffset":1078848,
			"target":34962
		},
		{
			"buffer":0,
			"byteLength":41472,
			"byteOffset":1120320,
			"target":34962
		},
		{
			"buffer":0,
			"byteLength":27648,
			"byteOffset":1161792,
			"target":34962
		},
		{
			"buffer":0,
			"byteLength":41472,
			"byteOffset":1189440,
			"target":34962
		},
		{
			"buffer":0,
			"byteLength":41472,
			"byteOffset":1230912,
			"target":34962
		},
		{
			"buffer":0,
			"byteLength":27648,
			"byteOffset":1272384,
			"target":34962
		},
		{
			"buffer":0,
			"byteLength":41472,
			"byteOffset":1300032,
			"target":34962
		},
		{
			"buffer":0,
			"byteLength":41472,
			"byteOffset":1341504,
			"target":34962
		},
		{
			"buffer":0,
			"byteLength":27648,
			"byteOffset":1382976,
			"target":34962
		},
		{
			"buffer":0,
			"byteLength":41472,
			"byteOffset":1410624,
			"target":34962
		},
		{
			"buffer":0,
			"byteLength":41472,
			"byteOffset":1452096,
			"target":34962
		},
		{
			"buffer":0,
			"byteLength":27648,
			"byteOffset":1493568,
			"target":34962
		}
	],
	"samplers":[
		{
			"magFilter":9729,
			"minFilter":9987
		}
	],
	"buffers":[
		{
			"byteLength":1521216,
			"uri":"environment.bin"
		}
	]
}
